^C:\USERS\OWNER\DOCUMENTS\EITAN\MAGSHIMIM\C++\LESSON5\EX5\SHAPES\SHAPES\DEBUG\ARROW.OBJ|C:\USERS\OWNER\DOCUMENTS\EITAN\MAGSHIMIM\C++\LESSON5\EX5\SHAPES\SHAPES\DEBUG\CANVAS.OBJ|C:\USERS\OWNER\DOCUMENTS\EITAN\MAGSHIMIM\C++\LESSON5\EX5\SHAPES\SHAPES\DEBUG\CIRCLE.OBJ|C:\USERS\OWNER\DOCUMENTS\EITAN\MAGSHIMIM\C++\LESSON5\EX5\SHAPES\SHAPES\DEBUG\MAIN.OBJ|C:\USERS\OWNER\DOCUMENTS\EITAN\MAGSHIMIM\C++\LESSON5\EX5\SHAPES\SHAPES\DEBUG\MENU.OBJ|C:\USERS\OWNER\DOCUMENTS\EITAN\MAGSHIMIM\C++\LESSON5\EX5\SHAPES\SHAPES\DEBUG\POINT.OBJ|C:\USERS\OWNER\DOCUMENTS\EITAN\MAGSHIMIM\C++\LESSON5\EX5\SHAPES\SHAPES\DEBUG\POLYGON.OBJ|C:\USERS\OWNER\DOCUMENTS\EITAN\MAGSHIMIM\C++\LESSON5\EX5\SHAPES\SHAPES\DEBUG\RECTANGLE.OBJ|C:\USERS\OWNER\DOCUMENTS\EITAN\MAGSHIMIM\C++\LESSON5\EX5\SHAPES\SHAPES\DEBUG\SHAPE.OBJ|C:\USERS\OWNER\DOCUMENTS\EITAN\MAGSHIMIM\C++\LESSON5\EX5\SHAPES\SHAPES\DEBUG\TRIANGLE.OBJ
C:\USERS\OWNER\DOCUMENTS\EITAN\MAGSHIMIM\C++\LESSON5\EX5\SHAPES\DEBUG\SHAPES.EXE
C:\USERS\OWNER\DOCUMENTS\EITAN\MAGSHIMIM\C++\LESSON5\EX5\SHAPES\DEBUG\SHAPES.ILK
C:\USERS\OWNER\DOCUMENTS\EITAN\MAGSHIMIM\C++\LESSON5\EX5\SHAPES\DEBUG\SHAPES.PDB
